core/behavorial/mac_col/rtl example/mac_col_tb.vcd
$date
	Mon Feb 17 14:57:05 2025
$end
$version
	Icarus Verilog
$end
$timescale
	1ps
$end
$scope module mac_col_tb $end
$var wire 20 ! out [19:0] $end
$var wire 2 " o_inst [1:0] $end
$var reg 1 # clk $end
$var reg 2 $ inst [1:0] $end
$var reg 128 % q_in [127:0] $end
$var reg 1 & reset $end
$var reg 20 ' temp5b [19:0] $end
$var integer 32 ( captured_data [31:0] $end
$var integer 32 ) j [31:0] $end
$var integer 32 * k [31:0] $end
$var integer 32 + q [31:0] $end
$var integer 32 , qk_file [31:0] $end
$var integer 32 - qk_scan_file [31:0] $end
$var integer 32 . t [31:0] $end
$scope module mac_col_instance $end
$var wire 1 # clk $end
$var wire 2 / i_inst [1:0] $end
$var wire 2 0 o_inst [1:0] $end
$var wire 128 1 q_in [127:0] $end
$var wire 128 2 q_out [127:0] $end
$var wire 1 & reset $end
$var wire 20 3 psum [19:0] $end
$var reg 2 4 inst_q [1:0] $end
$var reg 128 5 key_q [127:0] $end
$var reg 1 6 load_ready_q $end
$var reg 20 7 out [19:0] $end
$var reg 128 8 query_q [127:0] $end
$scope module mac_16in_instance $end
$var wire 128 9 a [127:0] $end
$var wire 128 : b [127:0] $end
$var wire 16 ; product9 [15:0] $end
$var wire 16 < product8 [15:0] $end
$var wire 16 = product7 [15:0] $end
$var wire 16 > product6 [15:0] $end
$var wire 16 ? product5 [15:0] $end
$var wire 16 @ product4 [15:0] $end
$var wire 16 A product3 [15:0] $end
$var wire 16 B product2 [15:0] $end
$var wire 16 C product15 [15:0] $end
$var wire 16 D product14 [15:0] $end
$var wire 16 E product13 [15:0] $end
$var wire 16 F product12 [15:0] $end
$var wire 16 G product11 [15:0] $end
$var wire 16 H product10 [15:0] $end
$var wire 16 I product1 [15:0] $end
$var wire 16 J product0 [15:0] $end
$var wire 20 K out [19:0] $end
$upscope $end
$upscope $end
$upscope $end
$enddefinitions $end
#0
$dumpvars
bx K
bx J
bx I
bx H
bx G
bx F
bx E
bx D
bx C
bx B
bx A
bx @
bx ?
bx >
bx =
bx <
bx ;
bx :
bx 9
bx 8
bx 7
x6
bx 5
bx 4
bx 3
bx 2
bx 1
bx 0
b0 /
bx .
b1 -
b10000000000000000000000000000011 ,
b0 +
bx *
b10000 )
b1110100 (
bx '
1&
bx %
b0 $
0#
bx "
bx !
$end
#1000
b0 "
b0 0
b0 4
16
b1 +
1#
#1500
0#
#2000
b0 +
1#
#2500
0#
#3000
b1 +
1#
#3500
0#
#4000
b10 +
1#
#4500
0#
#5000
b11 +
1#
#5500
0#
#6000
b100 +
1#
#6500
0#
#7000
b101 +
1#
#7500
0#
#8000
b110 +
1#
#8500
0#
#9000
b111 +
1#
#9500
0#
#10000
b1000 +
1#
#10500
0#
#11000
b1001 +
1#
#11500
0#
#12000
b11111110111100001001 '
b10000 *
b1000 .
b10000 )
b11111111111111111111111111101000 (
b10000000000000000000000000000100 ,
0&
b1010 +
1#
#12500
b11101000111000010001000000111100001100001110001000010111111000011100011100010111000010111011010101111011100101001101111011110000 %
b11101000111000010001000000111100001100001110001000010111111000011100011100010111000010111011010101111011100101001101111011110000 1
b1 $
b1 /
0#
#13000
b1 "
b1 0
b1 4
1#
#13500
b0 $
b0 /
0#
#14000
b1011101011001000 3
b1011101011001000 K
b100000000 J
b10010000100 I
b10110110010000 B
b11101100011001 A
b1010111111001 @
b1111001 ?
b1000010001 >
b110010110001 =
b1111000001 <
b1000010001 ;
b1110000100 H
b100100000000 G
b111000010000 F
b100000000 E
b1111000001 D
b1001000000 C
06
b11101000111000010001000000111100001100001110001000010111111000011100011100010111000010111011010101111011100101001101111011110000 5
b11101000111000010001000000111100001100001110001000010111111000011100011100010111000010111011010101111011100101001101111011110000 :
b11101000111000010001000000111100001100001110001000010111111000011100011100010111000010111011010101111011100101001101111011110000 2
b11101000111000010001000000111100001100001110001000010111111000011100011100010111000010111011010101111011100101001101111011110000 8
b11101000111000010001000000111100001100001110001000010111111000011100011100010111000010111011010101111011100101001101111011110000 9
b0 "
b0 0
b0 4
b0 +
1#
#14500
0#
#15000
b1011101011001000 !
b1011101011001000 7
b1 +
1#
#15500
0#
#16000
b10 +
1#
#16500
b10 $
b10 /
0#
#17000
b10 "
b10 0
b10 4
b0 +
1#
#17500
b10010110011000100001000001111000101001011111100101011110011001000101101111010110000100111110010001110100010111000011111111101 %
b10010110011000100001000001111000101001011111100101011110011001000101101111010110000100111110010001110100010111000011111111101 1
0#
#18000
b110000 J
b1000000010010 I
b11000101011100 B
b1100100100111010 A
b1101101110101100 @
b1111110101010110 ?
b101011110110 >
b1101000001101 =
b11001001100 <
b1111011101 ;
b11110011110 H
b1111000000 G
b1110000100 F
b10000100000 E
b11001001100 D
b10101010100100 3
b10101010100100 K
b1111111001010000 C
b10010110011000100001000001111000101001011111100101011110011001000101101111010110000100111110010001110100010111000011111111101 2
b10010110011000100001000001111000101001011111100101011110011001000101101111010110000100111110010001110100010111000011111111101 8
b10010110011000100001000001111000101001011111100101011110011001000101101111010110000100111110010001110100010111000011111111101 9
b1 +
1#
#18500
b11010110101101000111000110101001100101000100111010011010101101011101000000101100000101100111010010011110111010111001010010100100 %
b11010110101101000111000110101001100101000100111010011010101101011101000000101100000101100111010010011110111010111001010010100100 1
0#
#19000
b10111000000 J
b111001011000 I
b100011011100 B
b1101000011101010 A
b1101111000000100 @
b11110010 ?
b1111110100 >
b101010110000 =
b100100010101 <
b1111011011010110 ;
b1111011011011100 H
b1110101111000000 G
b1110101110011100 F
b11100010000 E
b100100110100 D
b11111011110111001111 3
b11111011110111001111 K
b1111110000 C
b11010110101101000111000110101001100101000100111010011010101101011101000000101100000101100111010010011110111010111001010010100100 2
b11010110101101000111000110101001100101000100111010011010101101011101000000101100000101100111010010011110111010111001010010100100 8
b11010110101101000111000110101001100101000100111010011010101101011101000000101100000101100111010010011110111010111001010010100100 9
b10101010100100 !
b10101010100100 7
b10 +
1#
#19500
b111010101000011110101110000000100001111101110010110011011101011100011111101000001111010110010100010001010111101001111110011000 %
b111010101000011110101110000000100001111101110010110011011101011100011111101000001111010110010100010001010111101001111110011000 1
0#
#20000
b11010000000 J
b110011100010 I
b1101100001011000 B
b100000101011 A
b1110001001101001 @
b1010011111 ?
b1111110111011000 >
b110010110001 =
b1111000111010101 <
b1111100100010101 ;
b10000111000 H
b1110100101010000 G
b1110001000000000 F
b1111111010110000 E
b101110000001 D
b11111010001010101001 3
b11111010001010101001 K
b1111101010010000 C
b111010101000011110101110000000100001111101110010110011011101011100011111101000001111010110010100010001010111101001111110011000 2
b111010101000011110101110000000100001111101110010110011011101011100011111101000001111010110010100010001010111101001111110011000 8
b111010101000011110101110000000100001111101110010110011011101011100011111101000001111010110010100010001010111101001111110011000 9
b11111011110111001111 !
b11111011110111001111 7
b11 +
1#
#20500
b11011010011101000111000010111100000101101110000101000001101011000110011101010001111100110101011011010111101011000100101010001100 %
b11011010011101000111000010111100000101101110000101000001101011000110011101010001111100110101011011010111101011000100101010001100 1
0#
#21000
b11101000000 J
b1111011000101100 I
b10001101110000 B
b1110110001001101 A
b1110011011001110 @
b1111111101110001 ?
b11101000111 >
b1110100100010001 =
b101000101100 <
b10111010111 ;
b1110100010 H
b10000100000 G
b1111000000010000 F
b11100000000 E
b1111000111110100 D
b11111110100000011001 3
b11111110100000011001 K
b1110010000 C
b11011010011101000111000010111100000101101110000101000001101011000110011101010001111100110101011011010111101011000100101010001100 2
b11011010011101000111000010111100000101101110000101000001101011000110011101010001111100110101011011010111101011000100101010001100 8
b11011010011101000111000010111100000101101110000101000001101011000110011101010001111100110101011011010111101011000100101010001100 9
b11111010001010101001 !
b11111010001010101001 7
b100 +
1#
#21500
b10000111101101001010010000111100100011100011110000100100001000010100001000001111000001111110101110001011010110101100110010101101 %
b10000111101101001010010000111100100011100011110000100100001000010100001000001111000001111110101110001011010110101100110010101101 1
0#
#22000
b10100110000 J
b11011101000 I
b1101101000001000 B
b1100011111001001 A
b11000100111 @
b1001101 ?
b101011001 >
b1111000101001110 =
b1111110000000001 <
b1100111100 ;
b1111100011111000 H
b1110101010100000 G
b111000010000 F
b1111101001000000 E
b100100110100 D
b11111010011010110101 3
b11111010011010110101 K
b101101011000 C
b10000111101101001010010000111100100011100011110000100100001000010100001000001111000001111110101110001011010110101100110010101101 2
b10000111101101001010010000111100100011100011110000100100001000010100001000001111000001111110101110001011010110101100110010101101 8
b10000111101101001010010000111100100011100011110000100100001000010100001000001111000001111110101110001011010110101100110010101101 9
b11111110100000011001 !
b11111110100000011001 7
b101 +
1#
#22500
b10111100110001110000010111001000100100011011010101111111011111001101011111000110000001000111100101111110001110000001101111000011 %
b10111100110001110000010111001000100100011011010101111111011111001101011111000110000001000111100101111110001110000001101111000011 1
0#
#23000
b1111010000 J
b1111110001101010 I
b1110100001100000 B
b11110010001010 A
b1101110010001101 @
b101100 ?
b1111101011001010 >
b100100100001 =
b1111000011111100 <
b101101101001 ;
b100011001010 H
b1110101100110000 G
b1111001011100000 F
b1010000 E
b11011100111 D
b11111111011010011110 3
b11111111011010011110 K
b11001100000 C
b10111100110001110000010111001000100100011011010101111111011111001101011111000110000001000111100101111110001110000001101111000011 2
b10111100110001110000010111001000100100011011010101111111011111001101011111000110000001000111100101111110001110000001101111000011 8
b10111100110001110000010111001000100100011011010101111111011111001101011111000110000001000111100101111110001110000001101111000011 9
b11111010011010110101 !
b11111010011010110101 7
b110 +
1#
#23500
b10001011010011100110000110110101111101001001111000000101001100101100011100000010110010101100010100001001011000101000101010101011 %
b10001011010011100110000110110101111101001001111000000101001100101100011100000010110010101100010100001001011000101000101010101011 1
0#
#24000
b10101010000 J
b111110101100 I
b1101011010101000 B
b10001010011 A
b1000101001001 @
b1111110110101110 ?
b101110 >
b110010110001 =
b1111100111110010 <
b1110011 ;
b101101111100 H
b1111110111000000 G
b1110111001101100 F
b11000010000 E
b1111011010001110 D
b10101110000 3
b10101110000 K
b101011111000 C
b10001011010011100110000110110101111101001001111000000101001100101100011100000010110010101100010100001001011000101000101010101011 2
b10001011010011100110000110110101111101001001111000000101001100101100011100000010110010101100010100001001011000101000101010101011 8
b10001011010011100110000110110101111101001001111000000101001100101100011100000010110010101100010100001001011000101000101010101011 9
b11111111011010011110 !
b11111111011010011110 7
b111 +
1#
#24500
b1110100001101110100000100100101011100111101011000101001101110100110111001010001011111010101110000110101011010101110000111001110 %
b1110100001101110100000100100101011100111101011000101001101110100110111001010001011111010101110000110101011010101110000111001110 1
0#
#25000
b1100100000 J
b10000011110 I
b1101001101001000 B
b1100101110111 A
b1110010100001100 @
b10101011111 ?
b11101000111 >
b1110011110000010 =
b100001111010 <
b1110101111 ;
b10011101100 H
b1010110010000 G
b100010101100 F
b10000010000 E
b1111100101010111 D
b11111110111100001001 3
b11111110111100001001 K
b1111010100100000 C
b1110100001101110100000100100101011100111101011000101001101110100110111001010001011111010101110000110101011010101110000111001110 2
b1110100001101110100000100100101011100111101011000101001101110100110111001010001011111010101110000110101011010101110000111001110 8
b1110100001101110100000100100101011100111101011000101001101110100110111001010001011111010101110000110101011010101110000111001110 9
b10101110000 !
b10101110000 7
b1000 +
1#
#25500
bx %
bx 1
0#
#26000
bx J
bx I
bx B
bx A
bx @
bx ?
bx >
bx =
bx <
bx ;
bx H
bx G
bx F
bx E
bx D
bx 3
bx K
bx C
bx 2
bx 8
bx 9
b11111110111100001001 !
b11111110111100001001 7
b1001 +
1#
#26500
0#
#27000
b0 "
b0 0
b0 4
bx !
bx 7
b1010 +
b0 $
b0 /
1#
