template/syn/netlist/add_tb.vcd
$date
	Sun Dec 26 20:52:48 2021
$end
$version
	Icarus Verilog
$end
$timescale
	1s
$end
$scope module add_tb $end
$var wire 6 ! out [5:0] $end
$var reg 1 " clk $end
$var reg 6 # expected_out [5:0] $end
$var reg 6 $ expected_out_delay [5:0] $end
$var reg 4 % x [3:0] $end
$var reg 4 & y [3:0] $end
$var reg 4 ' z [3:0] $end
$var integer 32 ( error [31:0] $end
$var integer 32 ) i [31:0] $end
$var integer 32 * x_dec [31:0] $end
$var integer 32 + x_file [31:0] $end
$var integer 32 , x_scan_file [31:0] $end
$var integer 32 - y_dec [31:0] $end
$var integer 32 . y_file [31:0] $end
$var integer 32 / y_scan_file [31:0] $end
$var integer 32 0 z_dec [31:0] $end
$var integer 32 1 z_file [31:0] $end
$var integer 32 2 z_scan_file [31:0] $end
$scope function add_predicted $end
$var reg 4 3 a [3:0] $end
$var reg 6 4 add_predicted [5:0] $end
$var reg 4 5 b [3:0] $end
$var reg 6 6 c [5:0] $end
$upscope $end
$scope function dec2bin $end
$var reg 4 7 dec2bin [3:0] $end
$var integer 32 8 weight [31:0] $end
$upscope $end
$scope module add_instance $end
$var wire 1 " clk $end
$var wire 4 9 x [3:0] $end
$var wire 4 : y [3:0] $end
$var wire 4 ; z [3:0] $end
$var wire 1 < s8 $end
$var wire 1 = s7 $end
$var wire 1 > s6 $end
$var wire 1 ? s5 $end
$var wire 1 @ s3 $end
$var wire 1 A s2 $end
$var wire 1 B s1 $end
$var wire 1 C s0 $end
$var wire 6 D out_wire [5:0] $end
$var wire 1 E c8 $end
$var wire 1 F c7 $end
$var wire 1 G c6 $end
$var wire 1 H c5 $end
$var wire 1 I c3 $end
$var wire 1 J c2 $end
$var wire 1 K c1 $end
$var wire 1 L c0 $end
$var reg 6 M out [5:0] $end
$var reg 4 N x_q [3:0] $end
$var reg 4 O y_q [3:0] $end
$var reg 4 P z_q [3:0] $end
$scope module csa2_2_instance4 $end
$var wire 1 H c $end
$var wire 1 ? s $end
$var wire 1 B y $end
$var wire 1 L x $end
$upscope $end
$scope module csa2_2_instance7 $end
$var wire 1 E c $end
$var wire 1 < s $end
$var wire 1 F y $end
$var wire 1 I x $end
$upscope $end
$scope module csa3_2_instance0 $end
$var wire 1 L c $end
$var wire 1 C s $end
$var wire 1 Q x $end
$var wire 1 R y $end
$var wire 1 S z $end
$upscope $end
$scope module csa3_2_instance1 $end
$var wire 1 K c $end
$var wire 1 B s $end
$var wire 1 T x $end
$var wire 1 U y $end
$var wire 1 V z $end
$upscope $end
$scope module csa3_2_instance2 $end
$var wire 1 J c $end
$var wire 1 A s $end
$var wire 1 W x $end
$var wire 1 X y $end
$var wire 1 Y z $end
$upscope $end
$scope module csa3_2_instance3 $end
$var wire 1 I c $end
$var wire 1 @ s $end
$var wire 1 Z x $end
$var wire 1 [ y $end
$var wire 1 \ z $end
$upscope $end
$scope module csa3_2_instance5 $end
$var wire 1 G c $end
$var wire 1 > s $end
$var wire 1 K x $end
$var wire 1 A y $end
$var wire 1 H z $end
$upscope $end
$scope module csa3_2_instance6 $end
$var wire 1 F c $end
$var wire 1 = s $end
$var wire 1 J x $end
$var wire 1 @ y $end
$var wire 1 G z $end
$upscope $end
$upscope $end
$upscope $end
$enddefinitions $end
#0
$dumpvars
x\
x[
xZ
xY
xX
xW
xV
xU
xT
xS
xR
xQ
bx P
bx O
bx N
bx M
xL
xK
xJ
xI
xH
xG
xF
xE
bx D
xC
xB
xA
x@
x?
x>
x=
x<
bx ;
bx :
bx 9
bx 8
bx 7
bx 6
bx 5
bx 4
bx 3
bx 2
b10000000000000000000000000000101 1
bx 0
bx /
b10000000000000000000000000000100 .
bx -
bx ,
b10000000000000000000000000000011 +
bx *
bx )
b0 (
bx '
bx &
bx %
b0 $
b0 #
0"
bx !
$end
#2
1"
#3
b0 )
0"
#4
b101 '
b101 ;
b1 &
b1 :
b1110 %
b1110 9
b101 7
b1 8
b1 2
b101 0
b1 /
b1 -
b1 ,
b1110 *
#5
0=
1<
1>
0G
1F
1H
0?
0E
1L
0K
0I
1J
b10100 D
0C
1B
0A
1@
1S
0V
1Y
0\
1R
0U
0X
0[
0Q
1T
1W
1Z
b101 P
b1 O
b1110 N
b1 )
b10100 #
b10100 4
b1110 3
b1 5
b101 6
1"
#6
b1000 '
b1000 ;
b1000 &
b1000 :
b111 %
b111 9
b1000 7
b0 8
b1000 0
b1000 -
b111 *
0"
#7
0G
0F
0H
1?
0E
1<
1>
0=
0L
1I
0J
b10111 D
1C
1A
0@
0S
0Y
1\
0R
1[
1Q
0Z
b1000 P
b1000 O
b111 N
b10100 !
b10100 M
b10 )
b10111 #
b10111 4
b111 3
b1000 5
b1000 6
b10100 $
1"
#8
b111 '
b111 ;
b111 &
b111 :
b1011 %
b1011 9
b111 7
b1 8
b111 0
b111 -
b1011 *
0"
#9
1F
1G
1<
1H
0?
0>
b11001 D
1=
1J
0I
1L
1K
0A
1@
1S
1V
1Y
0\
1R
1U
1X
0[
0W
1Z
b111 P
b111 O
b1011 N
b10111 !
b10111 M
b11 )
b11001 #
b11001 4
b1011 3
b111 5
b111 6
b10111 $
1"
#10
b1110 '
b1110 ;
b1011 &
b1011 :
b11 %
b11 9
b1110 7
b0 8
b1110 0
b1011 -
b11 *
0"
#11
0F
1>
0E
1<
1=
0J
1I
1A
b11100 D
0C
0@
0S
1\
0X
1[
0Z
b1110 P
b1011 O
b11 N
b11001 !
b11001 M
b100 )
b11100 #
b11100 4
b11 3
b1011 5
b1110 6
b11001 $
1"
#12
b10 '
b10 ;
b1100 &
b1100 :
b10 %
b10 9
b10 7
b0 8
b10 0
b1100 -
b10 *
0"
#13
1F
1<
0>
b10000 D
0=
0I
0H
0L
0B
1@
0Y
0\
0R
0U
1X
0Q
b10 P
b1100 O
b10 N
b11100 !
b11100 M
b101 )
b10000 #
b10000 4
b10 3
b1100 5
b10 6
b11100 $
1"
#14
b11 '
b11 ;
b1101 &
b1101 :
b1101 %
b1101 9
b11 7
b1 8
b11 0
b1101 -
b1101 *
0"
#15
0F
0G
1>
1=
0E
1<
1H
1J
1I
1L
1B
0K
0A
0@
b11101 D
1C
1S
1R
1Q
0T
1W
1Z
b11 P
b1101 O
b1101 N
b10000 !
b10000 M
b110 )
b11101 #
b11101 4
b1101 3
b1101 5
b11 6
b10000 $
1"
#16
b1 '
b1 ;
b1011 &
b1011 :
b1 8
b1 %
b1 9
b1 7
b1 0
b1011 -
b1 *
0"
#17
0F
1=
b1101 D
0<
0J
0I
1@
0V
1U
0X
0W
0Z
b1 P
b1011 O
b1 N
b11101 !
b11101 M
b111 )
b1101 #
b1101 4
b1 3
b1011 5
b1 6
b11101 $
1"
#18
b1111 '
b1111 ;
b101 &
b101 :
b100 %
b100 9
b1111 7
b1 8
b1111 0
b101 -
b100 *
0"
#19
1<
1F
1G
1=
0>
b11000 D
0C
1J
1A
1V
1Y
1\
0U
1X
0[
0Q
1W
b1111 P
b101 O
b100 N
b1101 !
b1101 M
b1000 )
b11000 #
b11000 4
b100 3
b101 5
b1111 6
b1101 $
1"
#20
b1100 '
b1100 ;
b1001 &
b1001 :
b1010 %
b1010 9
b1100 7
b0 8
b1100 0
b1001 -
b1010 *
0"
#21
0F
0G
1>
1=
0H
1?
0L
0J
0E
1<
1I
b11111 D
1C
0S
0V
0X
1[
1T
0W
1Z
b1100 P
b1001 O
b1010 N
b11000 !
b11000 M
b1001 )
b11111 #
b11111 4
b1010 3
b1001 5
b1100 6
b11000 $
1"
#22
b100 '
b100 ;
b100 &
b100 :
b100 %
b100 9
b100 7
b0 8
b100 0
b100 -
b100 *
0"
#23
0<
0?
0I
b1100 D
0C
0B
1J
0@
0\
0R
1X
0[
0T
1W
0Z
b100 P
b100 O
b100 N
b11111 !
b11111 M
b1010 )
b1100 #
b1100 4
b100 3
b100 5
b100 6
b11111 $
1"
