core/behavorial/mac_col/fullchip_tb.vcd
$date
	Mon Mar  3 23:40:06 2025
$end
$version
	Icarus Verilog
$end
$timescale
	1ps
$end
$scope module fullchip_tb $end
$var wire 17 ! inst [16:0] $end
$var reg 1 " clk $end
$var reg 1 # execute $end
$var reg 1 $ kmem_rd $end
$var reg 1 % kmem_wr $end
$var reg 1 & load $end
$var reg 128 ' mem_in [127:0] $end
$var reg 1 ( ofifo_rd $end
$var reg 4 ) pmem_add [3:0] $end
$var reg 1 * pmem_rd $end
$var reg 1 + pmem_wr $end
$var reg 4 , qkmem_add [3:0] $end
$var reg 1 - qmem_rd $end
$var reg 1 . qmem_wr $end
$var reg 1 / reset $end
$var reg 20 0 temp16b [19:0] $end
$var reg 20 1 temp5b [19:0] $end
$var integer 32 2 captured_data [31:0] $end
$var integer 32 3 j [31:0] $end
$var integer 32 4 k [31:0] $end
$var integer 32 5 q [31:0] $end
$var integer 32 6 qk_file [31:0] $end
$var integer 32 7 qk_scan_file [31:0] $end
$var integer 32 8 t [31:0] $end
$scope module mac_col_instance $end
$var wire 1 " clk $end
$var wire 2 9 i_inst [1:0] $end
$var wire 2 : o_inst [1:0] $end
$var wire 20 ; out [19:0] $end
$var wire 128 < q_in [127:0] $end
$var wire 128 = q_out [127:0] $end
$var wire 1 / reset $end
$var wire 20 > psum [19:0] $end
$var wire 1 ? fifo_wr $end
$var reg 4 @ cnt_q [3:0] $end
$var reg 2 A inst_2q [1:0] $end
$var reg 2 B inst_q [1:0] $end
$var reg 128 C key_q [127:0] $end
$var reg 1 D load_ready_q $end
$var reg 128 E query_q [127:0] $end
$scope module mac_16in_instance $end
$var wire 128 F a [127:0] $end
$var wire 128 G b [127:0] $end
$var wire 16 H product9 [15:0] $end
$var wire 16 I product8 [15:0] $end
$var wire 16 J product7 [15:0] $end
$var wire 16 K product6 [15:0] $end
$var wire 16 L product5 [15:0] $end
$var wire 16 M product4 [15:0] $end
$var wire 16 N product3 [15:0] $end
$var wire 16 O product2 [15:0] $end
$var wire 16 P product15 [15:0] $end
$var wire 16 Q product14 [15:0] $end
$var wire 16 R product13 [15:0] $end
$var wire 16 S product12 [15:0] $end
$var wire 16 T product11 [15:0] $end
$var wire 16 U product10 [15:0] $end
$var wire 16 V product1 [15:0] $end
$var wire 16 W product0 [15:0] $end
$var wire 20 X out [19:0] $end
$upscope $end
$upscope $end
$upscope $end
$enddefinitions $end
#0
$dumpvars
bx X
bx W
bx V
bx U
bx T
bx S
bx R
bx Q
bx P
bx O
bx N
bx M
bx L
bx K
bx J
bx I
bx H
bx G
bx F
bx E
xD
bx C
bx B
bx A
bx @
x?
bx >
bx =
bx <
bx ;
bx :
b0 9
bx 8
b1 7
b10000000000000000000000000000011 6
b0 5
bx 4
b10000 3
b11111111111111111111111111111100 2
bx 1
bx 0
1/
0.
0-
b0 ,
0+
0*
b0 )
0(
bx '
0&
0%
0$
0#
0"
b0 !
$end
#1000
0?
b0 A
b0 :
b0 B
1D
b0 @
b1 5
1"
#1500
0"
#2000
b0 5
1"
#2500
0"
#3000
b1 5
1"
#3500
0"
#4000
b10 5
1"
#4500
0"
#5000
b11 5
1"
#5500
0"
#6000
b100 5
1"
#6500
0"
#7000
b101 5
1"
#7500
0"
#8000
b110 5
1"
#8500
0"
#9000
b111 5
1"
#9500
0"
#10000
b1000 5
1"
#10500
0"
#11000
b1001 5
1"
#11500
0"
#12000
b0x 0
b0x 1
b10000 4
b1000 8
b10000 3
b11 2
b10000000000000000000000000000100 6
0/
b0 5
1"
#12500
b11111100111111001111111111111100111111010000000100000100111111011111101111111110000001111111110000000010000000010000011011111111 '
b11111100111111001111111111111100111111010000000100000100111111011111101111111110000001111111110000000010000000010000011011111111 <
b10000 !
1.
0"
#13000
b1 5
1"
#13500
b0 !
0.
0"
#14000
b0 5
1"
#14500
b1000000010000000100000001000000010000000100000001000000010000000100000001000000010000000100000001000000000000000100000001 '
b1000000010000000100000001000000010000000100000001000000010000000100000001000000010000000100000001000000000000000100000001 <
b100 !
1%
0"
#15000
b1 5
1"
#15500
b0 !
0%
0"
#16000
b0 5
1"
#16500
0"
#17000
b1 5
1"
#17500
0"
#18000
b0 5
1"
#18500
b1 9
b1000001 !
1&
0"
#19000
b1 :
b1 B
b1 5
1"
#19500
b1001001 !
1$
0"
#20000
b1 @
b1000000010000000100000001000000010000000100000001000000010000000100000001000000010000000100000001000000000000000100000001 =
b1000000010000000100000001000000010000000100000001000000010000000100000001000000010000000100000001000000000000000100000001 E
b1000000010000000100000001000000010000000100000001000000010000000100000001000000010000000100000001000000000000000100000001 F
b1 A
b10 5
1"
#20500
b1000001 !
0$
0"
#21000
b10 @
1"
#21500
b0 9
b0 !
0&
0"
#22000
b11 @
b0 :
b0 B
b0 5
1"
#22500
0"
#23000
b0 A
b1 5
1"
#23500
0"
#24000
b10 5
1"
#24500
0"
#25000
b11 5
1"
#25500
0"
#26000
b100 5
1"
#26500
0"
#27000
b101 5
1"
#27500
0"
#28000
b110 5
1"
#28500
0"
#29000
b111 5
1"
#29500
0"
#30000
b1000 5
1"
#30500
0"
#31000
b1001 5
1"
#31500
0"
#32000
b0 5
1"
#32500
b10 9
1-
b10100010 !
1#
0"
#33000
b10 :
b10 B
b1 5
1"
#33500
b0 9
0#
b0 !
0-
0"
#34000
1?
b10 A
b0 :
b0 B
b0 5
1"
#34500
0"
#35000
0?
b0 A
b1 5
1"
#35500
0"
#36000
b10 5
1"
#36500
0"
#37000
b11 5
1"
#37500
0"
#38000
b100 5
1"
#38500
0"
#39000
b101 5
1"
#39500
0"
#40000
b110 5
1"
#40500
0"
#41000
b111 5
1"
#41500
0"
#42000
b1000 5
1"
#42500
0"
#43000
b1001 5
1"
#43500
0"
#44000
b0 5
1"
#44500
1+
b10000000000000000 !
1(
0"
#45000
b1 5
1"
#45500
b0 !
0(
0+
0"
